{
  "providers": [
    "awscloudformation"
  ],
  "projectName": "amplifyhomes",
  "version": "3.1",
  "frontend": "javascript",
  "javascript": {
    "framework": "react",
    "config": {
      "SourceDir": "src",
      "DistributionDir": "build",
      "BuildCommand": "yarn build",
      "StartCommand": "yarn dev"
    }
  }
}